^C:\USERS\GORDIY\SOURCE\REPOS\TABLES\TABLES\TABLES.CPP
C:\USERS\GORDIY\SOURCE\REPOS\TABLES\TABLES\DEBUG\VC142.PDB
C:\USERS\GORDIY\SOURCE\REPOS\TABLES\TABLES\DEBUG\VC142.IDB
C:\USERS\GORDIY\SOURCE\REPOS\TABLES\TABLES\DEBUG\TABLES.OBJ
