^C:\USERS\GORDIY\SOURCE\REPOS\TABLES\UNITTEST2\PCH.CPP
C:\USERS\GORDIY\SOURCE\REPOS\TABLES\UNITTEST2\DEBUG\UNITTEST2.PCH
C:\USERS\GORDIY\SOURCE\REPOS\TABLES\UNITTEST2\DEBUG\VC142.PDB
C:\USERS\GORDIY\SOURCE\REPOS\TABLES\UNITTEST2\DEBUG\VC142.IDB
C:\USERS\GORDIY\SOURCE\REPOS\TABLES\UNITTEST2\DEBUG\PCH.OBJ
^C:\USERS\GORDIY\SOURCE\REPOS\TABLES\UNITTEST2\UNITTEST2.CPP
C:\USERS\GORDIY\SOURCE\REPOS\TABLES\UNITTEST2\DEBUG\VC142.PDB
C:\USERS\GORDIY\SOURCE\REPOS\TABLES\UNITTEST2\DEBUG\VC142.IDB
C:\USERS\GORDIY\SOURCE\REPOS\TABLES\UNITTEST2\DEBUG\UNITTEST2.OBJ
