^C:\USERS\GORDIY\SOURCE\REPOS\TABLES\UNITTEST1\PCH.CPP
C:\USERS\GORDIY\SOURCE\REPOS\TABLES\UNITTEST1\DEBUG\UNITTEST1.PCH
C:\USERS\GORDIY\SOURCE\REPOS\TABLES\UNITTEST1\DEBUG\VC142.PDB
C:\USERS\GORDIY\SOURCE\REPOS\TABLES\UNITTEST1\DEBUG\VC142.IDB
C:\USERS\GORDIY\SOURCE\REPOS\TABLES\UNITTEST1\DEBUG\PCH.OBJ
^C:\USERS\GORDIY\SOURCE\REPOS\TABLES\UNITTEST1\UNITTEST1.CPP
C:\USERS\GORDIY\SOURCE\REPOS\TABLES\UNITTEST1\DEBUG\VC142.PDB
C:\USERS\GORDIY\SOURCE\REPOS\TABLES\UNITTEST1\DEBUG\VC142.IDB
C:\USERS\GORDIY\SOURCE\REPOS\TABLES\UNITTEST1\DEBUG\UNITTEST1.OBJ
