#Command: "C:\Program Files (x86)\Microsoft Visual Studio\2019\Community\VC\Tools\MSVC\14.20.27508\bin\HostX86\x86\link.exe" /ERRORREPORT:PROMPT @C:\Users\Gordiy\AppData\Local\Temp\tmp7bfe97a298ec4022b70c3175e1b57471.rsp /nologo /incremental /fullbuild
^C:\USERS\GORDIY\SOURCE\REPOS\TABLES\UNITTEST1\DEBUG\PCH.OBJ|C:\USERS\GORDIY\SOURCE\REPOS\TABLES\UNITTEST1\DEBUG\UNITTEST1.OBJ
C:\USERS\GORDIY\APPDATA\LOCAL\TEMP\LNK{6D0A45B9-6392-44B8-8B6D-AD8BC8A88B02}.TMP
